<?xml version="1.0" encoding="UTF-8"?>
<svg width="40px" height="40px" viewBox="0 0 40 40" version="1.1" xmlns="http://www.w3.org/2000/svg" xmlns:xlink="http://www.w3.org/1999/xlink">
    <!-- Generator: Sketch 54.1 (76490) - https://sketchapp.com -->
    <title>arrow_right</title>
    <desc>Created with Sketch.</desc>
    <g id="Page-1" stroke="none" stroke-width="1" fill="none" fill-rule="evenodd">
        <g id="Group-13-Copy">
            <rect id="Rectangle-Copy-9" fill="#F42C30" opacity="0.900000036" x="0" y="0" width="40" height="40" rx="20"></rect>
            <polyline id="Shape-Copy" stroke="#FFFFFF" stroke-width="2" stroke-linecap="round" stroke-linejoin="round" transform="translate(20.500000, 20.000000) scale(-1, 1) translate(-20.500000, -20.000000) " points="24 27 17 20 24 13"></polyline>
        </g>
    </g>
</svg>