<?xml version="1.0" encoding="UTF-8"?>
<svg width="24px" height="24px" viewBox="0 0 24 24" version="1.1" xmlns="http://www.w3.org/2000/svg" xmlns:xlink="http://www.w3.org/1999/xlink">
    <!-- Generator: Sketch 52.5 (67469) - http://www.bohemiancoding.com/sketch -->
    <title>ic_cross</title>
    <desc>Created with Sketch.</desc>
    <g id="assets" stroke="none" stroke-width="1" fill="none" fill-rule="evenodd" stroke-linecap="square">
        <g id="Artboard" transform="translate(-24.000000, -24.000000)" stroke="#000000">
            <g id="Group-9" transform="translate(36.435029, 36.435029) rotate(45.000000) translate(-36.435029, -36.435029) translate(26.935029, 26.935029)">
                <path d="M0.5,9.5 L18.5,9.5" id="Line"></path>
                <path d="M0.5,9.5 L18.5,9.5" id="Line-Copy" transform="translate(9.500000, 9.500000) rotate(90.000000) translate(-9.500000, -9.500000) "></path>
            </g>
        </g>
    </g>
</svg>