<?xml version="1.0" encoding="UTF-8"?>
<svg width="26px" height="26px" viewBox="0 0 26 26" version="1.1" xmlns="http://www.w3.org/2000/svg" xmlns:xlink="http://www.w3.org/1999/xlink">
    <!-- Generator: Sketch 54.1 (76490) - https://sketchapp.com -->
    <title>ic_plus</title>
    <desc>Created with Sketch.</desc>
    <g id="Page-1" stroke="none" stroke-width="1" fill="none" fill-rule="evenodd">
        <g id="Group-3-Copy-3" transform="translate(1.000000, 1.000000)" stroke="#FBA50E">
            <g id="ic_plus-copy" transform="translate(7.000000, 7.000000)" stroke-linecap="round" stroke-linejoin="round">
                <g id="Group">
                    <path d="M5,0 L5,10" id="Line"></path>
                    <path d="M10,5 L0,5" id="Line-Copy"></path>
                </g>
            </g>
            <rect id="Rectangle" fill-rule="nonzero" x="0" y="0" width="24" height="24" rx="12"></rect>
        </g>
    </g>
</svg>