<?xml version="1.0" encoding="UTF-8"?>
<svg width="16px" height="16px" viewBox="0 0 16 16" version="1.1" xmlns="http://www.w3.org/2000/svg" xmlns:xlink="http://www.w3.org/1999/xlink">
    <!-- Generator: Sketch 54.1 (76490) - https://sketchapp.com -->
    <title>logo_fire</title>
    <desc>Created with Sketch.</desc>
    <g id="Page-1" stroke="none" stroke-width="1" fill="none" fill-rule="evenodd" stroke-linecap="round" stroke-linejoin="round">
        <g id="Group-19" transform="translate(4.000000, 3.000000)" stroke="#B5DC6D" stroke-width="1.42857143">
            <path d="M1.36661193,4.27800604 L1.36661193,4.27800604 C2.9357061,4.26382346 4.2192055,2.99153923 4.23338807,1.43627967" id="Path" transform="translate(2.800000, 2.857143) rotate(-58.000000) translate(-2.800000, -2.857143) "></path>
            <path d="M5.1241488,5.37332927 C3.55505463,5.38751185 2.27155523,6.65979608 2.25737266,8.21505564" id="Path" transform="translate(3.690761, 6.794192) rotate(-58.000000) translate(-3.690761, -6.794192) "></path>
        </g>
    </g>
</svg>